Count points in cells in a two-dimensional grid — hotspot_count • sfhotspot
…
    Examples

# Set cell size automatically
# \donttest{
hotspot_count(memphis_robberies_jan)
#> Cell size set to 0.00512 degrees automatically
#> Simple feature collection with 2505 features and 1 field
#> Geometry type: POLYGON
#> Dimension:     XY
#> Bounding box:  xmin: -90.1261 ymin: 34.99475 xmax: -89.77282 ymax: 35.25587
#> Geodetic CRS:  WGS 84
#> # A tibble: 2,505 × 2
#>        n                                                                geometry
#>  * <dbl>                                                           <POLYGON [°]>
#>  1     0 ((-90.03394 34.99475, -90.02882 34.99475, -90.02882 34.99987, -90.0339…
#>  2     0 ((-90.02882 34.99475, -90.0237 34.99475, -90.0237 34.99987, -90.02882 …
#>  3     0 ((-90.0237 34.99475, -90.01858 34.99475, -90.01858 34.99987, -90.0237 …
#>  4     0 ((-90.01858 34.99475, -90.01346 34.99475, -90.01346 34.99987, -90.0185…
#>  5     1 ((-90.01346 34.99475, -90.00834 34.99475, -90.00834 34.99987, -90.0134…
#>  6     0 ((-90.00834 34.99475, -90.00322 34.99475, -90.00322 34.99987, -90.0083…
#>  7     0 ((-90.00322 34.99475, -89.9981 34.99475, -89.9981 34.99987, -90.00322 …
#>  8     0 ((-89.9981 34.99475, -89.99298 34.99475, -89.99298 34.99987, -89.9981 …
#>  9     0 ((-89.99298 34.99475, -89.98786 34.99475, -89.98786 34.99987, -89.9929…
#> 10     0 ((-90.05442 34.99987, -90.0493 34.99987, -90.0493 35.00499, -90.05442 …
#> # ℹ 2,495 more rows
…
# Manually set grid-cell size in metres, since the `memphis_robberies_utm`
# dataset uses a co-ordinate reference system (UTM zone 15 north) that is
# specified in metres
# \donttest{
hotspot_count(memphis_robberies_utm, cell_size = 200)
#> Simple feature collection with 16133 features and 1 field
#> Geometry type: POLYGON
#> Dimension:     XY
#> Bounding box:  xmin: 762136.2 ymin: 3876586 xmax: 794136.2 ymax: 3905386
#> Projected CRS: WGS 84 / UTM zone 15N
#> # A tibble: 16,133 × 2
#>        n                                                                geometry
#>  * <dbl>                                                           <POLYGON [m]>
#>  1     0 ((771936.2 3876586, 771936.2 3876786, 772136.2 3876786, 772136.2 38765…
#>  2     0 ((772136.2 3876586, 772136.2 3876786, 772336.2 3876786, 772336.2 38765…
#>  3     0 ((772336.2 3876586, 772336.2 3876786, 772536.2 3876786, 772536.2 38765…
#>  4     0 ((772536.2 3876586, 772536.2 3876786, 772736.2 3876786, 772736.2 38765…
#>  5     1 ((772736.2 3876586, 772736.2 3876786, 772936.2 3876786, 772936.2 38765…
#>  6     0 ((772936.2 3876586, 772936.2 3876786, 773136.2 3876786, 773136.2 38765…
#>  7     0 ((773136.2 3876586, 773136.2 3876786, 773336.2 3876786, 773336.2 38765…
#>  8     0 ((773336.2 3876586, 773336.2 3876786, 773536.2 3876786, 773536.2 38765…
#>  9     0 ((773536.2 3876586, 773536.2 3876786, 773736.2 3876786, 773736.2 38765…
#> 10     0 ((771136.2 3876786, 771136.2 3876986, 771336.2 3876986, 771336.2 38767…
#> # ℹ 16,123 more rows
…
