Estimate the relationship between the kernel density of two layers of points — hotspot_dual_kde • sfhotspot
…
  memphis_population_utm,
  bandwidth = list(NULL, NULL),
  weights = c(NULL, population)
)
#> Cell size set to 500 metres automatically
#> Bandwidth set automatically based on rule of thumb.
#> ℹ Bandwidth for `x` = 5,592 metres.
#> Bandwidth set automatically based on rule of thumb.
#> ℹ Bandwidth for `y` = 5,175 metres.
#> Simple feature collection with 3302 features and 2 fields
#> Geometry type: POLYGON
#> Dimension:     XY
#> Bounding box:  xmin: 761931.5 ymin: 3876436 xmax: 797931.5 ymax: 3906436
#> Projected CRS: WGS 84 / UTM zone 15N
#> # A tibble: 3,302 × 3
#>        n     kde                                                        geometry
#>  * <dbl>   <dbl>                                                   <POLYGON [m]>
#>  1     0 0.00228 ((762931.5 3876436, 762931.5 3876936, 763431.5 3876936, 763431…
#>  2     0 0.00214 ((763431.5 3876436, 763431.5 3876936, 763931.5 3876936, 763931…
#>  3     0 0.00203 ((763931.5 3876436, 763931.5 3876936, 764431.5 3876936, 764431…
#>  4     0 0.00194 ((764431.5 3876436, 764431.5 3876936, 764931.5 3876936, 764931…
#>  5     0 0.00188 ((764931.5 3876436, 764931.5 3876936, 765431.5 3876936, 765431…
#>  6     0 0.00185 ((765431.5 3876436, 765431.5 3876936, 765931.5 3876936, 765931…
#>  7     0 0.00184 ((765931.5 3876436, 765931.5 3876936, 766431.5 3876936, 766431…
#>  8     0 0.00185 ((766431.5 3876436, 766431.5 3876936, 766931.5 3876936, 766931…
#>  9     0 0.00188 ((766931.5 3876436, 766931.5 3876936, 767431.5 3876936, 767431…
#> 10     0 0.00195 ((767431.5 3876436, 767431.5 3876936, 767931.5 3876936, 767931…
#> # ℹ 3,292 more rows
…
