Identify significant spatial clusters of points — hotspot_gistar • sfhotspot
…
# Transform data to UTM zone 15N so that cell_size and bandwidth can be set
# in metres
memphis_robberies_utm <- st_transform(memphis_robberies_jan, 32615)

# Automatically set grid-cell size, bandwidth and neighbour distance
# \donttest{
hotspot_gistar(memphis_robberies_utm)
#> Cell size set to 500 metres automatically
#> Bandwidth set to 8,877 metres automatically based on rule of thumb
#> Simple feature collection with 2715 features and 4 fields
#> Geometry type: POLYGON
#> Dimension:     XY
#> Bounding box:  xmin: 761986.2 ymin: 3876436 xmax: 794486.2 ymax: 3905936
#> Projected CRS: WGS 84 / UTM zone 15N
#> # A tibble: 2,715 × 5
#>        n   kde gistar pvalue                                            geometry
#>    <dbl> <dbl>  <dbl>  <dbl>                                       <POLYGON [m]>
#>  1     0 11.1  -0.546  0.585 ((770486.2 3876436, 770486.2 3876936, 770986.2 387…
#>  2     0 11.2  -0.598  0.550 ((770986.2 3876436, 770986.2 3876936, 771486.2 387…
#>  3     0 11.2  -0.598  0.550 ((771486.2 3876436, 771486.2 3876936, 771986.2 387…
#>  4     0 11.1   0.716  0.474 ((771986.2 3876436, 771986.2 3876936, 772486.2 387…
#>  5     1 10.9   0.716  0.474 ((772486.2 3876436, 772486.2 3876936, 772986.2 387…
#>  6     0 10.5   0.716  0.474 ((772986.2 3876436, 772986.2 3876936, 773486.2 387…
#>  7     0 10.0  -0.598  0.550 ((773486.2 3876436, 773486.2 3876936, 773986.2 387…
#>  8     0  9.45 -0.598  0.550 ((773986.2 3876436, 773986.2 3876936, 774486.2 387…
#>  9     0  8.76 -0.546  0.585 ((774486.2 3876436, 774486.2 3876936, 774986.2 387…
#> 10     0 10.1   0.893  0.372 ((768486.2 3876936, 768486.2 3877436, 768986.2 387…
#> # ℹ 2,705 more rows
# }

# Manually set grid-cell size in metres, since the `memphis_robberies`
# dataset uses a co-ordinate reference system (UTM zone 15 north) that is
# specified in metres
# \donttest{
hotspot_gistar(memphis_robberies_utm, cell_size = 200)
#> Bandwidth set to 8,877 metres automatically based on rule of thumb
#> Simple feature collection with 16133 features and 4 fields
#> Geometry type: POLYGON
#> Dimension:     XY
#> Bounding box:  xmin: 762136.2 ymin: 3876586 xmax: 794136.2 ymax: 3905386
#> Projected CRS: WGS 84 / UTM zone 15N
#> # A tibble: 16,133 × 5
#>        n   kde gistar  pvalue                                           geometry
#>    <dbl> <dbl>  <dbl>   <dbl>                                      <POLYGON [m]>
#>  1     0  11.2 -0.243 0.808   ((771936.2 3876586, 771936.2 3876786, 772136.2 38…
#>  2     0  11.1 -0.266 0.790   ((772136.2 3876586, 772136.2 3876786, 772336.2 38…
#>  3     0  11.1 -0.266 0.790   ((772336.2 3876586, 772336.2 3876786, 772536.2 38…
#>  4     0  11.0  3.20  0.00135 ((772536.2 3876586, 772536.2 3876786, 772736.2 38…
#>  5     1  10.8  3.20  0.00135 ((772736.2 3876586, 772736.2 3876786, 772936.2 38…
#>  6     0  10.7  3.20  0.00135 ((772936.2 3876586, 772936.2 3876786, 773136.2 38…
#>  7     0  10.5 -0.266 0.790   ((773136.2 3876586, 773136.2 3876786, 773336.2 38…
#>  8     0  10.3 -0.266 0.790   ((773336.2 3876586, 773336.2 3876786, 773536.2 38…
#>  9     0  10.1 -0.243 0.808   ((773536.2 3876586, 773536.2 3876786, 773736.2 38…
#> 10     0  11.6 -0.243 0.808   ((771136.2 3876786, 771136.2 3876986, 771336.2 38…
#> # ℹ 16,123 more rows
…
# is not intuitive to set these values manually in decimal degrees. To do
# this it is necessary to not calculate KDEs due to a limitation in the
# underlying function.
# \donttest{
hotspot_gistar(memphis_robberies, kde = FALSE)
#> The co-ordinates in `data` are latitudes and longitudes
#> ℹ `cell_size` and `bandwidth` will be in decimal degrees
#> ℹ Consider transforming `data` to use a projected CRS
#> Cell size set to 0.00524 degrees automatically
#> Simple feature collection with 2926 features and 3 fields
#> Geometry type: POLYGON
#> Dimension:     XY
#> Bounding box:  xmin: -90.1261 ymin: 34.99475 xmax: -89.72786 ymax: 35.26199
#> Geodetic CRS:  WGS 84
#> # A tibble: 2,926 × 4
#>        n gistar pvalue                                                  geometry
#>    <dbl>  <dbl>  <dbl>                                             <POLYGON [°]>
#>  1     0 -0.992  0.321 ((-90.08418 34.99475, -90.07894 34.99475, -90.07894 34.9…
#>  2     0 -0.850  0.395 ((-90.07894 34.99475, -90.0737 34.99475, -90.0737 34.999…
#>  3     0 -0.733  0.463 ((-90.0737 34.99475, -90.06846 34.99475, -90.06846 34.99…
#>  4     0 -0.887  0.375 ((-90.06846 34.99475, -90.06322 34.99475, -90.06322 34.9…
#>  5     0 -0.887  0.375 ((-90.06322 34.99475, -90.05798 34.99475, -90.05798 34.9…
#>  6     0 -0.475  0.635 ((-90.05798 34.99475, -90.05274 34.99475, -90.05274 34.9…
#>  7     0 -0.614  0.539 ((-90.05274 34.99475, -90.0475 34.99475, -90.0475 34.999…
#>  8     0 -0.733  0.463 ((-90.0475 34.99475, -90.04226 34.99475, -90.04226 34.99…
#>  9     0 -0.992  0.321 ((-90.04226 34.99475, -90.03702 34.99475, -90.03702 34.9…
#> 10     0 -0.992  0.321 ((-90.03702 34.99475, -90.03178 34.99475, -90.03178 34.9…
#> # ℹ 2,916 more rows
…
