Identify change in hotspots over time — hotspot_change • sfhotspot
…
    Examples

# Compare counts from the first half of the period covered by the data to
# counts from the second half
# \donttest{
hotspot_change(memphis_robberies)
#> Boundary point set as 09:30 hours on 02 July 2019 automatically
#> Cell size set to 0.00524 degrees automatically
#> Simple feature collection with 2926 features and 3 fields
#> Geometry type: POLYGON
#> Dimension:     XY
#> Bounding box:  xmin: -90.1261 ymin: 34.99475 xmax: -89.72786 ymax: 35.26199
#> Geodetic CRS:  WGS 84
#> # A tibble: 2,926 × 4
#>    n_before n_after change                                              geometry
#>  *    <dbl>   <dbl>  <dbl>                                         <POLYGON [°]>
#>  1        0       0      0 ((-90.08418 34.99475, -90.07894 34.99475, -90.07894 …
#>  2        0       0      0 ((-90.07894 34.99475, -90.0737 34.99475, -90.0737 34…
#>  3        0       0      0 ((-90.0737 34.99475, -90.06846 34.99475, -90.06846 3…
#>  4        0       0      0 ((-90.06846 34.99475, -90.06322 34.99475, -90.06322 …
#>  5        0       0      0 ((-90.06322 34.99475, -90.05798 34.99475, -90.05798 …
#>  6        0       0      0 ((-90.05798 34.99475, -90.05274 34.99475, -90.05274 …
#>  7        0       0      0 ((-90.05274 34.99475, -90.0475 34.99475, -90.0475 34…
#>  8        0       0      0 ((-90.0475 34.99475, -90.04226 34.99475, -90.04226 3…
#>  9        0       0      0 ((-90.04226 34.99475, -90.03702 34.99475, -90.03702 …
#> 10        0       0      0 ((-90.03702 34.99475, -90.03178 34.99475, -90.03178 …
#> # … with 2,916 more rows
…
# variable
# \donttest{
memphis_robberies$weekend <-
  weekdays(memphis_robberies$date) %in% c("Saturday", "Sunday")
hotspot_change(memphis_robberies, groups = weekend)
#> Comparing periods based on values of `weekend`:
#> • Rows with `weekend == FALSE` used as the 'before' period
#> • Rows with `weekend == TRUE` used as the 'after' period
#> Cell size set to 0.00524 degrees automatically
#> Simple feature collection with 2926 features and 3 fields
#> Geometry type: POLYGON
#> Dimension:     XY
#> Bounding box:  xmin: -90.1261 ymin: 34.99475 xmax: -89.72786 ymax: 35.26199
#> Geodetic CRS:  WGS 84
#> # A tibble: 2,926 × 4
#>    n_before n_after change                                              geometry
#>  *    <dbl>   <dbl>  <dbl>                                         <POLYGON [°]>
#>  1        0       0      0 ((-90.08418 34.99475, -90.07894 34.99475, -90.07894 …
#>  2        0       0      0 ((-90.07894 34.99475, -90.0737 34.99475, -90.0737 34…
#>  3        0       0      0 ((-90.0737 34.99475, -90.06846 34.99475, -90.06846 3…
#>  4        0       0      0 ((-90.06846 34.99475, -90.06322 34.99475, -90.06322 …
#>  5        0       0      0 ((-90.06322 34.99475, -90.05798 34.99475, -90.05798 …
#>  6        0       0      0 ((-90.05798 34.99475, -90.05274 34.99475, -90.05274 …
#>  7        0       0      0 ((-90.05274 34.99475, -90.0475 34.99475, -90.0475 34…
#>  8        0       0      0 ((-90.0475 34.99475, -90.04226 34.99475, -90.04226 3…
#>  9        0       0      0 ((-90.04226 34.99475, -90.03702 34.99475, -90.03702 …
#> 10        0       0      0 ((-90.03702 34.99475, -90.03178 34.99475, -90.03178 …
#> # … with 2,916 more rows
…
